{'component': '...',
 'date': '2023-07-27T04:50:32.649Z',
 'institution': '...',
 'passed': True,
 'problems': False,
 'properties': {'ANALYSIS_VERSION': 'PXJOZGNOJLVYYADUEFWGRKDPZPCSOM',
                'INSTRUMENT': 'QUUEOYTIAGCBONIYGTTKCQJIYUANHT',
                'OPERATOR': 'ZPGSUBZCEGEFBAVMADFSXLTBXLIHST'},
 'results': {'OBSERVATION': 'YRLNMEKRNPLQLLYTCWHGHLHJYSKNYE'},
 'runNumber': '...',
 'testType': 'QUICK_TAB_CUTTING_INSPECTION'}
