{'component': '...',
 'date': '2023-07-27T04:50:33.664Z',
 'institution': '...',
 'passed': True,
 'problems': False,
 'properties': {'ANALYSIS_VERSION': 'VQWVIGRXTUQFTPSLTKJKWFKNIMULWE',
                'INSTRUMENT': 'HMSDVRCOGHJORVTMGLBHRZYVHPWHYM',
                'OPERATOR': 'UVQHMMCQAXWJDPAPMCSDBLWPDJTLTJ'},
 'results': {'COMPONENT_MISALIGNMENT_GRADE': 11,
             'DATA_CONNECTOR_ASSEMBLY_GRADE': 25,
             'HV_LV_CONNECTOR_ASSEMBLY_GRADE': 90,
             'OBSERVATION': 'XLECAYTQJJZAFEPKQJJMFHNTEQPSZJ',
             'OVERALL_GRADE': 80,
             'PARTICULATE_CONTAMINATION_GRADE': 62,
             'SCRATCHES_GRADE': 79,
             'SHORTS_OR_CLOSE_PROXIMITY_GRADE': 6,
             'SOLDERMASK_IRREGULARITIES_GRADE': 98,
             'SOLDER_SPILLS_GRADE': 8,
             'WATERMARKS_GRADE': 79,
             'WIREBOND_PADS_CONTAMINATION_GRADE': 99},
 'runNumber': '...',
 'testType': 'VISUAL_INSPECTION'}
