{'component': '...',
 'date': '2023-07-17T06:56:14.934Z',
 'institution': '...',
 'passed': True,
 'problems': False,
 'results': {'LINK_TO_SENSOR_IV_TEST': None,
             'NON_WORKING_FE_CHIPS': [848.15, 848.15]},
 'runNumber': '...',
 'testType': 'BARE_MODULE_SENSOR_IV'}
