{
 "component": "AAAA",
 "date": "2023-07-17T06:56:14.430Z",
 "institution": "...",
 "passed": true,
 "problems": false,
 "properties": {"ANALYSIS_VERSION": "SAOYAMFCIEHOWIISYTZHCWDSNTHNJB"},
 "results": {"BARE_MODULE_THICKNESS": 99.78,
             "BARE_MODULE_THICKNESS_STD_DEVIATION": 892.04,
             "FECHIPS_X": 909.42,
             "FECHIPS_Y": 157.75,
             "FECHIP_THICKNESS": 624.67,
             "FECHIP_THICKNESS_STD_DEVIATION": 756.01,
             "SENSOR_THICKNESS": 172.62,
             "SENSOR_THICKNESS_STD_DEVIATION": 692.18,
             "SENSOR_X": 734.82,
             "SENSOR_Y": 599.01},
 "runNumber": "...",
 "testType": "QUAD_BARE_MODULE_METROLOGY"
}
