{'component': '...',
 'date': '2023-07-27T04:50:33.163Z',
 'institution': '...',
 'passed': True,
 'problems': False,
 'properties': {'ANALYSIS_VERSION': 'IOQVCOSTUDUIHOKTWYXMNWCBXOVSRX',
                'INSTRUMENT': 'FPOAEPHSDURCYMPRTFSWDTGISRDNCA',
                'OPERATOR': 'VXDCFDIGEUJWGSVKLTXZFYJMIBWMRZ'},
 'results': {'R44': 715.68,
             'R45': 399.06,
             'R46': 581.57,
             'R47_ANALOG': 520.08,
             'R48': 474.98,
             'R49': 160.37,
             'R51_DIGITAL': 509.05,
             'R52': 767.11,
             'R7': 154.78,
             'TH5_NTC': 584.44},
 'runNumber': '...',
 'testType': 'SLDO_RESISTORS'}
